<?xml version="1.0" encoding="utf-8"?>
<!-- Generator: Adobe Illustrator 16.0.0, SVG Export Plug-In . SVG Version: 6.00 Build 0)  -->
<!DOCTYPE svg PUBLIC "-//W3C//DTD SVG 1.1//EN" "http://www.w3.org/Graphics/SVG/1.1/DTD/svg11.dtd">
<svg version="1.1" id="Capa_1" xmlns="http://www.w3.org/2000/svg" xmlns:xlink="http://www.w3.org/1999/xlink" x="0px" y="0px"
	 width="50px" height="50px" viewBox="0 0 50 50" enable-background="new 0 0 50 50" xml:space="preserve">
<g>
	<path d="M46.769,8.133H7.233C5.451,8.133,4,9.583,4,11.365v27.268c0,1.782,1.451,3.234,3.233,3.234h39.535
		c1.782,0,3.231-1.452,3.231-3.234V11.365C50.001,9.583,48.552,8.133,46.769,8.133z M48.468,38.633c0,0.938-0.762,1.7-1.699,1.7
		H7.233c-0.937,0-1.699-0.763-1.699-1.7V11.365c0-0.936,0.763-1.699,1.699-1.699h39.535c0.938,0,1.699,0.764,1.699,1.699V38.633z"/>
	<path d="M16.267,30.365H9.367c-0.425,0-0.767,0.345-0.767,0.768c0,0.424,0.342,0.768,0.767,0.768h6.899
		c0.424,0,0.768-0.344,0.768-0.768C17.034,30.71,16.692,30.365,16.267,30.365z"/>
	<path d="M26.233,30.365h-6.899c-0.424,0-0.767,0.345-0.767,0.768c0,0.424,0.343,0.768,0.767,0.768h6.899
		c0.424,0,0.768-0.344,0.768-0.768C27.001,30.71,26.657,30.365,26.233,30.365z"/>
	<path d="M10.134,34.2H9.368c-0.424,0-0.768,0.344-0.768,0.767c0,0.424,0.344,0.766,0.768,0.766h0.766
		c0.424,0,0.768-0.342,0.768-0.766C10.901,34.544,10.558,34.2,10.134,34.2z"/>
	<path d="M14.733,34.2H13.2c-0.424,0-0.768,0.344-0.768,0.767c0,0.424,0.344,0.766,0.768,0.766h1.533
		c0.424,0,0.768-0.342,0.768-0.766C15.501,34.544,15.157,34.2,14.733,34.2z"/>
	<path d="M18.567,34.2h-0.767c-0.424,0-0.767,0.344-0.767,0.767c0,0.424,0.343,0.766,0.767,0.766h0.767
		c0.424,0,0.767-0.342,0.767-0.766C19.334,34.544,18.991,34.2,18.567,34.2z"/>
	<path d="M23.167,34.2h-1.533c-0.424,0-0.767,0.344-0.767,0.767c0,0.424,0.343,0.766,0.767,0.766h1.533
		c0.424,0,0.768-0.342,0.768-0.766C23.935,34.544,23.592,34.2,23.167,34.2z"/>
	<path d="M25.69,34.422c-0.14,0.146-0.223,0.346-0.223,0.545s0.083,0.398,0.223,0.545c0.145,0.137,0.345,0.221,0.543,0.221
		c0.201,0,0.399-0.084,0.545-0.221c0.139-0.146,0.223-0.346,0.223-0.545s-0.084-0.398-0.223-0.545
		C26.487,34.139,25.965,34.139,25.69,34.422z"/>
	<path d="M40.801,27.3c-0.979,0-1.894,0.267-2.684,0.728c-0.789-0.461-1.704-0.728-2.683-0.728c-2.959,0-5.367,2.407-5.367,5.366
		c0,2.96,2.408,5.367,5.367,5.367c0.979,0,1.894-0.268,2.683-0.727c0.79,0.459,1.704,0.727,2.684,0.727
		c2.959,0,5.366-2.407,5.366-5.367C46.167,29.707,43.76,27.3,40.801,27.3z M39.267,32.666c0,1.068-0.44,2.036-1.149,2.73
		c-0.707-0.694-1.149-1.662-1.149-2.73s0.442-2.035,1.149-2.73C38.826,30.631,39.267,31.598,39.267,32.666z M31.601,32.666
		c0-2.113,1.721-3.833,3.834-3.833c0.482,0,0.941,0.101,1.369,0.265c-0.849,0.949-1.369,2.197-1.369,3.568s0.521,2.62,1.369,3.568
		C36.376,36.4,35.917,36.5,35.435,36.5C33.321,36.5,31.601,34.781,31.601,32.666z M40.801,36.5c-0.481,0-0.942-0.1-1.37-0.266
		c0.85-0.948,1.37-2.197,1.37-3.568s-0.521-2.619-1.37-3.568c0.428-0.164,0.889-0.265,1.37-0.265c2.114,0,3.834,1.72,3.834,3.833
		C44.635,34.781,42.915,36.5,40.801,36.5z"/>
	<path d="M10.33,25h4.601h1.143h4.6c0.953,0,1.729-0.775,1.729-1.729v-6.133v-1.143c0-0.953-0.774-1.729-1.729-1.729h-5.742H10.33
		c-0.954,0-1.729,0.775-1.729,1.729v7.275C8.601,24.225,9.376,25,10.33,25z M13.2,20.4h-3.067v-1.533H13.2V20.4z M10.134,23.271
		v-1.338h3.067v1.338c0,0.066,0.012,0.131,0.021,0.195h-2.891C10.222,23.467,10.134,23.379,10.134,23.271z M20.867,20.4h-3.066
		v-1.338c0-0.107,0.089-0.195,0.195-0.195h2.676c0.065,0,0.13-0.014,0.195-0.02V20.4L20.867,20.4z M20.672,23.467H17.78
		c0.008-0.064,0.021-0.129,0.021-0.195v-1.338h3.067v1.338C20.867,23.379,20.78,23.467,20.672,23.467z M20.672,15.8
		c0.108,0,0.195,0.089,0.195,0.196v1.143c0,0.107-0.087,0.194-0.195,0.194h-2.676c-0.953,0-1.729,0.776-1.729,1.729v4.207
		c0,0.108-0.086,0.196-0.195,0.196h-1.143c-0.107,0-0.195-0.087-0.195-0.196v-7.274c0-0.108,0.088-0.196,0.195-0.196L20.672,15.8
		L20.672,15.8z M10.33,15.8h2.89c-0.007,0.065-0.02,0.13-0.02,0.196v1.337h-3.067v-1.337C10.134,15.887,10.222,15.8,10.33,15.8z"/>
</g>
</svg>
