<?xml version="1.0" encoding="utf-8"?>
<!-- Generator: Adobe Illustrator 16.0.0, SVG Export Plug-In . SVG Version: 6.00 Build 0)  -->
<!DOCTYPE svg PUBLIC "-//W3C//DTD SVG 1.1//EN" "http://www.w3.org/Graphics/SVG/1.1/DTD/svg11.dtd">
<svg version="1.1" id="Capa_1" xmlns="http://www.w3.org/2000/svg" xmlns:xlink="http://www.w3.org/1999/xlink" x="0px" y="0px"
	 width="50px" height="50px" viewBox="0 0 50 50" enable-background="new 0 0 50 50" xml:space="preserve">
<g>
	<g>
		<path d="M49.614,14.716c-0.344-0.601-0.882-1.065-1.556-1.344l-3.709-1.537c-1.918-0.793-4.119-0.641-5.889,0.408l-4.533,2.686
			c-0.313,0.186-0.406,0.574-0.207,0.867s0.615,0.379,0.928,0.193l4.533-2.686c1.389-0.823,3.117-0.942,4.623-0.319l0.537,0.224
			l-1.43,0.713c-0.311,0.156-0.461,0.506-0.322,0.81c0.111,0.243,0.36,0.383,0.619,0.383c0.106,0,0.217-0.024,0.316-0.073
			l2.376-1.188l1.61,0.667c0.396,0.165,0.713,0.437,0.914,0.788c0.412,0.719,0.256,1.607-0.377,2.164
			c-2.471,2.164-5.183,4.047-8.061,5.597c-1.055,0.569-2.141,1.11-3.281,1.642l0.59-0.942c0.137-0.218,0.14-0.491-0.016-0.697
			c-0.191-0.256-0.55-0.339-0.844-0.206l-11.398,5.133c-0.221,0.1-0.367,0.303-0.38,0.531l-0.041,0.697
			c-2.019,0.621-4.188,1.238-6.473,1.839l0.521-0.942c0.12-0.217,0.112-0.48-0.041-0.678c-0.193-0.249-0.543-0.326-0.834-0.199
			l-4.886,2.16c-0.2,0.09-0.341,0.264-0.376,0.469l-0.053,0.307c-0.61-0.094-1.174-0.391-1.569-0.846l-4.756-5.453l1.819-0.908
			l2.47,1.602c1.838,1.192,4.247,1.239,6.137,0.12l15.552-9.212c0.313-0.186,0.405-0.574,0.207-0.867
			c-0.199-0.292-0.615-0.379-0.929-0.193l-6.108,3.619l-5.369-0.299c-0.123-0.007-0.248,0.018-0.356,0.072l-4.048,2.021
			c-0.171,0.084-0.305,0.229-0.352,0.403c-0.076,0.278,0.056,0.56,0.309,0.699l2.547,1.409l-2.173,1.285
			c-1.433,0.849-3.257,0.813-4.647-0.09l-2.808-1.822c-0.208-0.133-0.478-0.147-0.701-0.037l-2.903,1.449
			c-0.177,0.088-0.303,0.246-0.342,0.43c-0.039,0.186,0.012,0.376,0.139,0.521l5.271,6.045c0.606,0.694,1.466,1.149,2.399,1.291
			l-0.601,3.487c-0.041,0.235,0.065,0.474,0.272,0.611c0.117,0.077,0.254,0.116,0.392,0.116c0.108,0,0.218-0.024,0.317-0.073
			l2.451-1.226c0.121-0.06,0.219-0.151,0.281-0.266l1.926-3.484c2.559-0.654,4.986-1.332,7.238-2.016l-0.431,7.434
			c-0.013,0.228,0.106,0.442,0.312,0.563c0.109,0.065,0.234,0.099,0.36,0.099c0.108,0,0.218-0.025,0.317-0.074l4.064-2.029
			c0.109-0.055,0.201-0.137,0.264-0.236l6.066-9.684c1.85-0.797,3.543-1.611,5.164-2.484c2.969-1.599,5.764-3.539,8.309-5.77
			C50.047,17.443,50.312,15.933,49.614,14.716z M17.199,22.425l2.846-1.42l3.316,0.185l-4.053,2.401L17.199,22.425z M14.28,35.319
			l-1.069,0.534l0.594-3.457l2.769-1.224L14.28,35.319z M28.366,35.538l-2.845,1.42l0.462-7.994l9.054-4.076L28.366,35.538z"/>
	</g>
</g>
</svg>
