<?xml version="1.0" encoding="utf-8"?>
<!-- Generator: Adobe Illustrator 16.0.0, SVG Export Plug-In . SVG Version: 6.00 Build 0)  -->
<!DOCTYPE svg PUBLIC "-//W3C//DTD SVG 1.1//EN" "http://www.w3.org/Graphics/SVG/1.1/DTD/svg11.dtd">
<svg version="1.1" id="Layer_1" xmlns="http://www.w3.org/2000/svg" xmlns:xlink="http://www.w3.org/1999/xlink" x="0px" y="0px"
	 width="50px" height="50px" viewBox="0 0 50 50" enable-background="new 0 0 50 50" xml:space="preserve">
<g>
	<g>
		<path d="M43.211,8.611c-4.377-4.377-10.199-6.789-16.39-6.789s-12.011,2.41-16.39,6.789C6.055,12.988,3.643,18.811,3.643,25
			s2.412,12.012,6.789,16.389c4.379,4.379,10.199,6.789,16.39,6.789s12.013-2.41,16.39-6.789C47.588,37.012,50,31.191,50,25
			S47.588,12.988,43.211,8.611z M26.822,46.331C15.061,46.331,5.491,36.762,5.491,25S15.061,3.67,26.822,3.67
			s21.331,9.568,21.331,21.331S38.584,46.331,26.822,46.331z"/>
	</g>
</g>
<g>
	<g>
		<path d="M26.822,17.475c-1.781,0-3.23,1.449-3.23,3.231v16.067c0,1.781,1.449,3.231,3.23,3.231s3.23-1.45,3.23-3.231V20.706
			C30.053,18.924,28.604,17.475,26.822,17.475z M28.207,36.773c0,0.766-0.621,1.386-1.386,1.386s-1.386-0.62-1.386-1.386V20.707
			c0-0.764,0.623-1.385,1.386-1.385c0.765,0,1.386,0.621,1.386,1.385V36.773z"/>
	</g>
</g>
<g>
	<g>
		<path d="M29.107,10.939c-0.604-0.601-1.438-0.944-2.285-0.944c-0.85,0-1.684,0.344-2.286,0.944
			c-0.603,0.603-0.946,1.436-0.946,2.287c0,0.85,0.344,1.683,0.947,2.285c0.602,0.602,1.436,0.946,2.285,0.946
			s1.684-0.345,2.285-0.948c0.604-0.602,0.945-1.435,0.945-2.283C30.053,12.376,29.709,11.543,29.107,10.939z M27.803,14.205
			c-0.258,0.259-0.617,0.406-0.98,0.406s-0.723-0.147-0.979-0.404c-0.258-0.26-0.406-0.616-0.406-0.98
			c0-0.365,0.148-0.722,0.404-0.979c0.258-0.258,0.617-0.407,0.98-0.407s0.723,0.147,0.979,0.405c0.26,0.258,0.406,0.615,0.406,0.98
			C28.207,13.591,28.059,13.947,27.803,14.205z"/>
	</g>
</g>
</svg>
