<?xml version="1.0" encoding="utf-8"?>
<!-- Generator: Adobe Illustrator 16.0.0, SVG Export Plug-In . SVG Version: 6.00 Build 0)  -->
<!DOCTYPE svg PUBLIC "-//W3C//DTD SVG 1.1//EN" "http://www.w3.org/Graphics/SVG/1.1/DTD/svg11.dtd">
<svg version="1.1" id="Capa_1" xmlns="http://www.w3.org/2000/svg" xmlns:xlink="http://www.w3.org/1999/xlink" x="0px" y="0px"
	 width="50px" height="50px" viewBox="0 0 50 50" enable-background="new 0 0 50 50" xml:space="preserve">
<path fill="#FFFFFF" d="M47.894,47.109L34.482,33.162c3.421-3.432,5.354-7.975,5.354-13.189c0-10.451-8.502-18.955-18.955-18.955
	C10.43,1.018,1.928,9.52,1.928,19.973c0,10.451,8.502,18.955,18.953,18.955c4.588,0,8.611-1.271,11.895-3.992l13.443,13.981
	c0.177,0.187,0.6-0.093,0.837-0.093c0.226,0,0.45-0.084,0.626-0.252C48.041,48.227,48.238,47.469,47.894,47.109z M20.881,35.906
	c-8.787,0-15.935-7.148-15.935-15.936S12.094,4.035,20.881,4.035s15.936,7.148,15.936,15.936S29.666,35.906,20.881,35.906z"/>
</svg>
